# This file uses centimeters as units for non-parametric coordinates.

v -0.500000 -0.500000 0.500000
v 0.500000 -0.500000 0.500000
v -0.500000 0.500000 0.500000
v 0.500000 0.500000 0.500000
v -0.500000 0.500000 -0.500000
v 0.500000 0.500000 -0.500000
v -0.500000 -0.500000 -0.500000
v 0.500000 -0.500000 -0.500000
vt 0.335938 0.007813
vt 0.664063 0.007813
vt 0.664063 0.335938
vt 0.335938 0.335938
vt 0.664063 0.664063
vt 0.335938 0.664063
vt 0.664063 0.992188
vt 0.335938 0.992188
vt 0.671875 0.664063
vt 1.000000 0.664063
vt 1.000000 0.992188
vt 0.671875 0.992188
vt 0.992188 0.007813
vt 0.992188 0.335938
vt 0.007813 0.007813
vt 0.007813 0.335938
f 1/1 2/2 4/3 3/4
f 3/4 4/3 6/5 5/6
f 5/6 6/5 8/7 7/8
f 7/9 8/10 2/11 1/12
f 2/2 8/13 6/14 4/3
f 7/15 1/1 3/4 5/16
