# This file uses centimeters as units for non-parametric coordinates.

v -0.559032 -0.482471 7.779603
v 0.559032 -0.482471 7.779603
v -0.559032 0.880600 7.779603
v 0.559032 0.880600 7.779603
v -0.329625 0.880600 -9.833293
v 0.329625 0.880600 -9.833293
v -0.329625 -0.482471 -9.833293
v 0.329625 -0.482471 -9.833293
v -0.559032 0.880600 2.054448
v -0.559032 -0.482471 2.054448
v 0.559032 -0.482471 2.054448
v 0.559032 0.880600 2.054448
v -0.329625 1.057306 -9.268075
v -0.329625 -0.659177 -9.268075
v 0.329625 -0.659177 -9.268075
v 0.329625 1.057306 -9.268075
v -0.197631 0.440003 -8.882084
v -0.197631 -0.041873 -8.882084
v 0.197631 -0.041873 -8.882084
v 0.197631 0.440003 -8.882084
v -0.197631 0.440003 1.739309
v -0.197631 -0.041874 1.739309
v 0.197631 -0.041874 1.739309
v 0.197631 0.440003 1.739309
v -0.329625 -0.679938 -10.782664
v 0.329625 -0.679938 -10.782664
v 0.329625 -1.355687 -10.609330
v -0.329625 -1.355687 -10.609330
v 0.329625 1.753816 -10.609330
v -0.329625 1.753816 -10.609330
v 0.329625 1.078067 -10.782664
v -0.329625 1.078067 -10.782664
v -0.329625 -0.502384 -11.654554
v 0.329625 -0.502384 -11.654554
v 0.329625 -0.884033 -12.039698
v -0.329625 -0.884033 -12.039698
v 0.329625 1.282161 -12.039698
v -0.329625 1.282161 -12.039698
v 0.329625 0.900513 -11.654554
v -0.329625 0.900513 -11.654554
v 0.310334 -0.987979 -0.952136
v 2.719056 -0.987979 -0.952136
v 0.310334 1.658169 -0.952136
v 2.719056 1.658169 -0.952136
v 0.310334 1.658169 -5.909509
v 2.719056 1.658169 -5.909509
v 0.310334 -0.987979 -5.909509
v 2.719056 -0.987979 -5.909509
v 2.785188 1.506846 -3.065411
v 2.819966 -0.577133 -2.084725
v 2.785188 1.506846 -4.777162
v 2.819966 -0.577133 -3.796476
v 1.644033 1.706541 -3.796476
v 1.644033 1.706541 -2.084725
v 2.788718 1.669973 -3.796476
v 2.788718 1.669973 -2.084725
v 2.948955 0.978156 -3.796476
v 2.948955 0.978156 -2.084725
v 0.152319 1.661892 -3.911785
v 0.152319 1.661892 -2.200034
v -0.200105 0.429413 -4.033631
v -0.200105 0.429413 -2.321881
v -0.203026 -0.027195 -4.033631
v -0.203026 -0.027195 -2.321881
v 1.423232 -1.123845 -4.446291
v 1.423232 -1.123845 -2.734540
v 0.310944 -1.031240 -4.225431
v 0.310944 -1.031240 -2.513680
v 2.781419 -0.995141 -4.671021
v 2.781419 -0.995141 -2.959270
v 2.805263 -0.323273 -4.699632
v 2.805263 -0.323273 -2.987881
v 2.835767 0.536299 -4.736238
v 2.835767 0.536299 -3.024487
v 2.235352 0.916027 -7.418249
v 1.791228 1.238702 -7.418249
v 1.242260 1.238702 -7.418249
v 0.798135 0.916027 -7.418249
v 0.628495 0.393927 -7.418249
v 0.798135 -0.128173 -7.418249
v 1.242260 -0.450848 -7.418249
v 1.791228 -0.450848 -7.418249
v 2.235352 -0.128172 -7.418249
v 2.404993 0.393927 -7.418249
v 2.235352 0.916027 -5.775729
v 1.791228 1.238702 -5.775729
v 1.242260 1.238702 -5.775729
v 0.798135 0.916027 -5.775729
v 0.628495 0.393927 -5.775729
v 0.798135 -0.128173 -5.775729
v 1.242260 -0.450848 -5.775729
v 1.791228 -0.450848 -5.775729
v 2.235352 -0.128172 -5.775729
v 2.404993 0.393927 -5.775729
v 1.516744 0.393927 -7.418249
v 1.516744 0.393927 -5.775729
v 2.822090 1.568817 -3.601876
v 2.859288 -0.657517 -4.591078
v 2.822090 1.568817 -1.875262
v 2.859288 -0.657517 -2.864464
v 1.601531 1.782152 -2.864463
v 1.601531 1.782152 -4.591078
v 2.825866 1.743086 -2.864464
v 2.825866 1.743086 -4.591078
v 2.997252 1.004013 -2.864464
v 2.997252 1.004013 -4.591078
v 0.006020 1.734453 -2.748153
v 0.006020 1.734453 -4.474768
v -0.370927 0.417785 -2.625249
v -0.370927 0.417785 -4.351863
v -0.374050 -0.070013 -2.625249
v -0.374050 -0.070013 -4.351863
v 1.365366 -1.241573 -2.209006
v 1.365366 -1.241573 -3.935620
v 0.175683 -1.142643 -2.431784
v 0.175683 -1.142643 -4.158398
v 2.818059 -1.104078 -1.982326
v 2.818059 -1.104078 -3.708940
v 2.843561 -0.386315 -1.953465
v 2.843561 -0.386315 -3.680079
v 2.876188 0.531972 -1.916542
v 2.876188 0.531972 -3.643156
vt 0.027557 0.584180
vt 0.080942 0.584180
vt 0.080942 0.649264
vt 0.027557 0.649264
vt 0.026800 0.567230
vt 0.026840 0.444499
vt 0.166350 0.444499
vt 0.274759 0.444497
vt 0.274799 0.567228
vt 0.166390 0.567230
vt 0.166377 0.437742
vt 0.026813 0.437742
vt 0.274786 0.437742
vt 0.166170 0.210049
vt 0.027021 0.210049
vt 0.274577 0.210049
vt 0.414379 0.210049
vt 0.650546 0.278769
vt 0.731579 0.278769
vt 0.652483 0.230109
vt 0.733516 0.230109
vt 0.736603 0.153326
vt 0.655571 0.153326
vt 0.654216 0.187012
vt 0.735249 0.187012
vt 0.409075 0.023257
vt 0.376291 0.023257
vt 0.409075 0.042410
vt 0.376291 0.042410
vt 0.409075 0.085769
vt 0.376291 0.085769
vt 0.376291 0.132982
vt 0.409075 0.132982
vt 0.445760 0.180285
vt 0.478544 0.180285
vt 0.471981 0.023257
vt 0.452324 0.023257
vt 0.445760 0.109153
vt 0.478544 0.109153
vt 0.478544 0.042452
vt 0.445760 0.042452
vt 0.576182 0.100298
vt 0.576182 0.027306
vt 0.656517 0.027306
vt 0.656517 0.100298
vt 0.576182 0.132766
vt 0.656517 0.132766
vt 0.863315 0.465051
vt 0.857903 0.395043
vt 0.938239 0.395043
vt 0.943650 0.465051
vt 0.857903 0.341321
vt 0.938239 0.341321
vt 0.852878 0.247639
vt 0.858596 0.305482
vt 0.778261 0.305482
vt 0.772542 0.247639
vt 0.852878 0.226210
vt 0.772542 0.226210
vt 0.843876 0.179089
vt 0.763541 0.179089
vt 0.616832 0.155463
vt 0.627379 0.219205
vt 0.547044 0.219205
vt 0.536497 0.155463
vt 0.637744 0.271407
vt 0.557409 0.271407
vt 0.758033 0.365492
vt 0.756690 0.333960
vt 0.837026 0.333960
vt 0.838368 0.365492
vt 0.759751 0.405833
vt 0.840086 0.405833
vt 0.761672 0.451382
vt 0.842007 0.451382
vt 0.095984 0.835215
vt 0.056556 0.835215
vt 0.056556 0.717246
vt 0.095984 0.717246
vt 0.024659 0.835215
vt 0.024659 0.717246
vt 0.127882 0.835215
vt 0.127882 0.717246
vt 0.236751 0.835215
vt 0.199253 0.835215
vt 0.199253 0.717246
vt 0.236751 0.717246
vt 0.161755 0.835215
vt 0.161755 0.717246
vt 0.138579 0.835215
vt 0.138579 0.717246
vt 0.248276 0.716562
vt 0.287704 0.716562
vt 0.287704 0.834530
vt 0.248276 0.834530
vt 0.319602 0.716562
vt 0.319602 0.834530
vt 0.332903 0.716833
vt 0.370402 0.716833
vt 0.370402 0.834801
vt 0.332903 0.834801
vt 0.407900 0.716833
vt 0.407900 0.834801
vt 0.013123 0.906941
vt 0.036298 0.875043
vt 0.073796 0.926655
vt 0.073796 0.862859
vt 0.013123 0.946369
vt 0.111294 0.875043
vt 0.036298 0.978267
vt 0.134469 0.906941
vt 0.073796 0.990451
vt 0.134469 0.946369
vt 0.111294 0.978267
vt 0.112087 0.875648
vt 0.135262 0.907546
vt 0.074589 0.927260
vt 0.135262 0.946974
vt 0.074589 0.863464
vt 0.112087 0.978872
vt 0.037091 0.875648
vt 0.074589 0.991056
vt 0.013916 0.907546
vt 0.037091 0.978872
vt 0.013916 0.946974
vt 0.754302 0.099109
vt 0.673270 0.099109
vt 0.673270 0.021131
vt 0.754302 0.021131
vt 0.754302 0.133795
vt 0.673270 0.133795
vt 0.953685 0.318688
vt 0.872652 0.318688
vt 0.878111 0.243808
vt 0.959144 0.243808
vt 0.878111 0.186348
vt 0.959144 0.186348
vt 0.888878 0.088915
vt 0.969911 0.088915
vt 0.964143 0.150709
vt 0.883110 0.150709
vt 0.888878 0.066022
vt 0.969911 0.066022
vt 0.897958 0.015682
vt 0.978991 0.015682
vt 0.789937 0.016171
vt 0.870970 0.016171
vt 0.860331 0.084349
vt 0.779298 0.084349
vt 0.849876 0.140182
vt 0.768843 0.140182
vt 0.522566 0.567230
vt 0.414158 0.567228
vt 0.414197 0.444497
vt 0.522606 0.444499
vt 0.414170 0.437742
vt 0.522579 0.437742
vt 0.522787 0.210049
vt 0.341556 0.023257
vt 0.374341 0.023257
vt 0.374341 0.091043
vt 0.341556 0.091043
vt 0.063752 0.078839
vt 0.054965 0.050730
vt 0.140325 0.050730
vt 0.131538 0.078839
vt 0.053932 0.126051
vt 0.020327 0.117431
vt 0.085663 0.031535
vt 0.109627 0.031535
vt 0.174963 0.117431
vt 0.141358 0.126051
vt 0.062762 0.169410
vt 0.043783 0.188563
vt 0.151507 0.188563
vt 0.132528 0.169410
vt 0.297112 0.169368
vt 0.211751 0.169368
vt 0.220539 0.141259
vt 0.288324 0.141259
vt 0.266414 0.188563
vt 0.242450 0.188563
vt 0.177114 0.102667
vt 0.210719 0.094047
vt 0.298145 0.094047
vt 0.331750 0.102667
vt 0.200569 0.031535
vt 0.219549 0.050688
vt 0.289315 0.050688
vt 0.308294 0.031535
vt 0.411025 0.023257
vt 0.443810 0.023257
vt 0.443810 0.070469
vt 0.411025 0.070469
vt 0.443810 0.113828
vt 0.411025 0.113828
vt 0.443810 0.132982
vt 0.411025 0.132982
vt 0.513279 0.161090
vt 0.480495 0.161090
vt 0.480495 0.094389
vt 0.513279 0.094389
vt 0.506715 0.180285
vt 0.487059 0.180285
vt 0.480495 0.023257
vt 0.513279 0.023257
vt 0.745094 0.738123
vt 0.853026 0.738123
vt 0.853026 0.856694
vt 0.745094 0.856694
vt 0.552674 0.514300
vt 0.660606 0.514300
vt 0.660606 0.736434
vt 0.552674 0.736434
vt 0.634565 0.738123
vt 0.742497 0.738123
vt 0.742497 0.856694
vt 0.634565 0.856694
vt 0.663280 0.514300
vt 0.771212 0.514300
vt 0.771212 0.736434
vt 0.663280 0.736434
vt 0.774629 0.736434
vt 0.774629 0.514300
vt 0.893201 0.514300
vt 0.893201 0.736434
vt 0.855622 0.960258
vt 0.855622 0.738123
vt 0.974194 0.738123
vt 0.974194 0.960258
f 1/1 2/2 4/3 3/4
f 3/152 4/153 12/154 9/155
f 5/159 6/160 8/161 7/162
f 10/7 11/8 2/9 1/10
f 2/9 11/8 12/154 4/153
f 10/7 1/10 3/5 9/6
f 22/11 10/7 9/6 21/12
f 22/11 23/13 11/8 10/7
f 12/154 11/8 23/13 24/156
f 9/155 12/154 24/156 21/157
f 7/163 14/164 13/165 5/166
f 33/196 34/195 35/197 36/198
f 16/177 15/178 8/179 6/180
f 38/27 37/26 39/28 40/29
f 14/164 18/169 17/170 13/165
f 14/200 15/199 19/203 18/204
f 20/181 19/182 15/178 16/177
f 17/37 20/36 16/40 13/41
f 18/14 22/11 21/12 17/15
f 18/14 19/16 23/13 22/11
f 24/156 23/13 19/16 20/17
f 21/157 24/156 20/17 17/158
f 7/191 8/192 26/193 25/194
f 8/179 15/178 27/183 26/184
f 15/199 14/200 28/201 27/202
f 14/164 7/163 25/167 28/168
f 13/41 16/40 29/39 30/38
f 16/177 6/180 31/185 29/186
f 6/33 5/32 32/31 31/30
f 5/166 13/165 30/171 32/172
f 25/194 26/193 34/195 33/196
f 26/184 27/183 35/187 34/188
f 27/202 28/201 36/205 35/206
f 28/168 25/167 33/173 36/174
f 30/38 29/39 37/35 38/34
f 29/186 31/185 39/189 37/190
f 31/30 32/31 40/29 39/28
f 32/172 30/171 38/175 40/176
f 41/207 42/208 44/209 43/210
f 43/211 44/212 46/213 45/214
f 45/215 46/216 48/217 47/218
f 47/219 48/220 42/221 41/222
f 42/223 48/224 46/225 44/226
f 47/227 41/228 43/229 45/230
f 58/42 50/43 52/44 57/45
f 60/48 54/49 53/50 59/51
f 54/49 56/52 55/53 53/50
f 56/46 58/42 57/45 55/47
f 62/54 60/55 59/56 61/57
f 64/58 62/54 61/57 63/59
f 68/60 64/58 63/59 67/61
f 70/62 66/63 65/64 69/65
f 66/63 68/66 67/67 65/64
f 72/68 70/69 69/70 71/71
f 74/72 72/68 71/71 73/73
f 49/74 74/72 73/73 51/75
f 75/82 76/76 86/79 85/83
f 76/76 77/77 87/78 86/79
f 77/77 78/80 88/81 87/78
f 78/84 79/85 89/86 88/87
f 79/85 80/88 90/89 89/86
f 80/88 81/90 91/91 90/89
f 81/92 82/93 92/94 91/95
f 82/93 83/96 93/97 92/94
f 83/98 84/99 94/100 93/101
f 84/99 75/102 85/103 94/100
f 76/104 75/105 95/106
f 77/108 76/104 95/106
f 78/110 77/108 95/106
f 79/112 78/110 95/106
f 80/114 79/112 95/106
f 81/113 80/114 95/106
f 82/111 81/113 95/106
f 83/109 82/111 95/106
f 84/107 83/109 95/106
f 75/105 84/107 95/106
f 85/115 86/116 96/117
f 86/116 87/118 96/117
f 87/118 88/120 96/117
f 88/120 89/122 96/117
f 89/122 90/124 96/117
f 90/124 91/125 96/117
f 91/125 92/123 96/117
f 92/123 93/121 96/117
f 93/121 94/119 96/117
f 94/119 85/115 96/117
f 106/126 105/127 100/128 98/129
f 108/132 107/133 101/134 102/135
f 102/135 101/134 103/136 104/137
f 104/130 103/131 105/127 106/126
f 110/138 109/139 107/140 108/141
f 112/142 111/143 109/139 110/138
f 116/144 115/145 111/143 112/142
f 118/146 117/147 113/148 114/149
f 114/149 113/148 115/150 116/151
f 120/25 119/24 117/23 118/22
f 122/21 121/20 119/24 120/25
f 97/19 99/18 121/20 122/21
